cpu.vcd
$date
	Sun May 10 13:15:38 2015
$end
$version
	Icarus Verilog
$end
$timescale
	1ps
$end
$scope module main $end
$scope module core1 $end
$var wire 1 ! atomicinst $end
$var wire 1 " atomicpause $end
$var wire 1 # clk $end
$var wire 1 $ corenumber $end
$var wire 4 % corestate [3:0] $end
$var wire 4 & dcacheempty [3:0] $end
$var wire 4 ' dcachehit [3:0] $end
$var wire 3 ( evictdcache [2:0] $end
$var wire 3 ) evicticache [2:0] $end
$var wire 4 * icacheempty [3:0] $end
$var wire 4 + icachehit [3:0] $end
$var wire 16 , ii [15:0] $end
$var wire 16 - jjj [15:0] $end
$var wire 16 . kk [15:0] $end
$var wire 16 / memIn [15:0] $end
$var wire 16 0 memInput [15:0] $end
$var wire 16 1 memOut [15:0] $end
$var wire 16 2 memOutput [15:0] $end
$var wire 1 3 memR $end
$var wire 1 4 memReady $end
$var wire 16 5 ocwa [15:0] $end
$var wire 1 6 ocwe $end
$var wire 4 7 opcode [3:0] $end
$var wire 4 8 ra [3:0] $end
$var wire 4 9 rb [3:0] $end
$var wire 4 : rt [3:0] $end
$var wire 16 ; startPC [15:0] $end
$var wire 16 < va [15:0] $end
$var wire 16 = vb [15:0] $end
$var wire 16 > waddr [15:0] $end
$var wire 16 ? wdata [15:0] $end
$var wire 1 @ we $end
$var reg 1 A atomic $end
$var reg 16 B inst [15:0] $end
$var reg 16 C pc [15:0] $end
$var reg 16 D res [15:0] $end
$var reg 4 E state [3:0] $end
$var reg 1 F writeEnable $end
$var reg 16 G writeaddress [15:0] $end
$var reg 16 H writedata [15:0] $end
$upscope $end
$upscope $end
$scope module main $end
$scope module core2 $end
$var wire 1 " atomicinst $end
$var wire 1 ! atomicpause $end
$var wire 1 # clk $end
$var wire 1 I corenumber $end
$var wire 4 J corestate [3:0] $end
$var wire 4 K dcacheempty [3:0] $end
$var wire 4 L dcachehit [3:0] $end
$var wire 3 M evictdcache [2:0] $end
$var wire 3 N evicticache [2:0] $end
$var wire 4 O icacheempty [3:0] $end
$var wire 4 P icachehit [3:0] $end
$var wire 16 Q ii [15:0] $end
$var wire 16 R jjj [15:0] $end
$var wire 16 S kk [15:0] $end
$var wire 16 T memIn [15:0] $end
$var wire 16 U memInput [15:0] $end
$var wire 16 V memOut [15:0] $end
$var wire 16 W memOutput [15:0] $end
$var wire 1 X memR $end
$var wire 1 Y memReady $end
$var wire 16 Z ocwa [15:0] $end
$var wire 1 @ ocwe $end
$var wire 4 [ opcode [3:0] $end
$var wire 4 \ ra [3:0] $end
$var wire 4 ] rb [3:0] $end
$var wire 4 ^ rt [3:0] $end
$var wire 16 _ startPC [15:0] $end
$var wire 16 ` va [15:0] $end
$var wire 16 a vb [15:0] $end
$var wire 16 b waddr [15:0] $end
$var wire 16 c wdata [15:0] $end
$var wire 1 6 we $end
$var reg 1 d atomic $end
$var reg 16 e inst [15:0] $end
$var reg 16 f pc [15:0] $end
$var reg 16 g res [15:0] $end
$var reg 4 h state [3:0] $end
$var reg 1 i writeEnable $end
$var reg 16 j writeaddress [15:0] $end
$var reg 16 k writedata [15:0] $end
$upscope $end
$upscope $end
$scope module main $end
$scope module i0 $end
$var wire 1 # clk $end
$var wire 16 l raddr [15:0] $end
$var wire 16 m raddr2 [15:0] $end
$var wire 16 n rdata [15:0] $end
$var wire 16 o rdata2 [15:0] $end
$var wire 1 p readEnable $end
$var wire 1 q readEnable2 $end
$var wire 1 3 ready $end
$var wire 1 X ready2 $end
$var wire 16 r waddr [15:0] $end
$var wire 16 s waddr2 [15:0] $end
$var wire 16 t wdata [15:0] $end
$var wire 16 u wdata2 [15:0] $end
$var wire 1 @ writeEnable $end
$var wire 1 6 writeEnable2 $end
$var reg 16 v counter [15:0] $end
$var reg 16 w counter2 [15:0] $end
$var reg 16 x ptr [15:0] $end
$var reg 16 y ptr2 [15:0] $end
$var reg 16 z temp [15:0] $end
$var reg 16 { temp2 [15:0] $end
$upscope $end
$upscope $end
$scope module main $end
$var wire 1 ! atomic1 $end
$var wire 1 " atomic2 $end
$var wire 1 # clk $end
$var wire 16 | core1memIn [15:0] $end
$var wire 16 } core1memOut [15:0] $end
$var wire 1 3 core1memReady $end
$var wire 16 ~ core1startPC [15:0] $end
$var wire 4 !" core1state [3:0] $end
$var wire 1 @ core1we $end
$var wire 16 "" core2memIn [15:0] $end
$var wire 16 #" core2memOut [15:0] $end
$var wire 1 X core2memReady $end
$var wire 16 $" core2startPC [15:0] $end
$var wire 4 %" core2state [3:0] $end
$var wire 1 6 core2we $end
$var wire 16 &" waddr1 [15:0] $end
$var wire 16 '" waddr2 [15:0] $end
$var wire 16 (" wdata1 [15:0] $end
$var wire 16 )" wdata2 [15:0] $end
$var reg 1 *" corenumber $end
$var reg 1 +" corenumber2 $end
$upscope $end
$enddefinitions $end
#0
$dumpvars
1+"
0*"
bx )"
bx ("
bx '"
bx &"
b0 %"
b1110 $"
bx #"
b1110 ""
b0 !"
b0 ~
bx }
b0 |
bx {
bx z
bx y
bx x
b0 w
b0 v
bx u
bx t
bx s
bx r
1q
1p
bx o
bx n
b1110 m
b0 l
bx k
bx j
xi
b0 h
bx g
b1110 f
bx e
0d
bx c
bx b
bx a
bx `
b1110 _
bx ^
bx ]
bx \
bx [
bx Z
0Y
0X
bx W
bx V
b1110 U
b1110 T
b0xxxxxxxx S
b0xxxxxxxxxxxx R
b0xxxxxxxx Q
b100 P
b0 O
b0 N
b0 M
b100 L
b0 K
b0 J
1I
bx H
bx G
xF
b0 E
bx D
b0 C
bx B
0A
x@
bx ?
bx >
bx =
bx <
b0 ;
bx :
bx 9
bx 8
bx 7
x6
bx 5
04
03
bx 2
bx 1
b0 0
b0 /
b0xxxxxxxx .
b0xxxxxxxxxxxx -
b0xxxxxxxx ,
b100 +
b0 *
b0 )
b0 (
b100 '
b0 &
b0 %
0$
1#
0"
0!
$end
#500
0#
#1000
bx /
bx 0
bx l
bx |
0p
bx T
bx U
bx m
bx ""
0q
b10 E
b10 %
b10 !"
0F
0@
b10 h
b10 J
b10 %"
0i
06
b1100100 w
b1110 y
b0 {
b1100100 v
b0 x
b0 z
1#
#1500
0#
#2000
b1100011 w
b1100011 v
1#
#2500
0#
#3000
b1100010 w
b1100010 v
1#
#3500
0#
#4000
b1100001 w
b1100001 v
1#
#4500
0#
#5000
b1100000 w
b1100000 v
1#
#5500
0#
#6000
b1011111 w
b1011111 v
1#
#6500
0#
#7000
b1011110 w
b1011110 v
1#
#7500
0#
#8000
b1011101 w
b1011101 v
1#
#8500
0#
#9000
b1011100 w
b1011100 v
1#
#9500
0#
#10000
b1011011 w
b1011011 v
1#
#10500
0#
#11000
b1011010 w
b1011010 v
1#
#11500
0#
#12000
b1011001 w
b1011001 v
1#
#12500
0#
#13000
b1011000 w
b1011000 v
1#
#13500
0#
#14000
b1010111 w
b1010111 v
1#
#14500
0#
#15000
b1010110 w
b1010110 v
1#
#15500
0#
#16000
b1010101 w
b1010101 v
1#
#16500
0#
#17000
b1010100 w
b1010100 v
1#
#17500
0#
#18000
b1010011 w
b1010011 v
1#
#18500
0#
#19000
b1010010 w
b1010010 v
1#
#19500
0#
#20000
b1010001 w
b1010001 v
1#
#20500
0#
#21000
b1010000 w
b1010000 v
1#
#21500
0#
#22000
b1001111 w
b1001111 v
1#
#22500
0#
#23000
b1001110 w
b1001110 v
1#
#23500
0#
#24000
b1001101 w
b1001101 v
1#
#24500
0#
#25000
b1001100 w
b1001100 v
1#
#25500
0#
#26000
b1001011 w
b1001011 v
1#
#26500
0#
#27000
b1001010 w
b1001010 v
1#
#27500
0#
#28000
b1001001 w
b1001001 v
1#
#28500
0#
#29000
b1001000 w
b1001000 v
1#
#29500
0#
#30000
b1000111 w
b1000111 v
1#
#30500
0#
#31000
b1000110 w
b1000110 v
1#
#31500
0#
#32000
b1000101 w
b1000101 v
1#
#32500
0#
#33000
b1000100 w
b1000100 v
1#
#33500
0#
#34000
b1000011 w
b1000011 v
1#
#34500
0#
#35000
b1000010 w
b1000010 v
1#
#35500
0#
#36000
b1000001 w
b1000001 v
1#
#36500
0#
#37000
b1000000 w
b1000000 v
1#
#37500
0#
#38000
b111111 w
b111111 v
1#
#38500
0#
#39000
b111110 w
b111110 v
1#
#39500
0#
#40000
b111101 w
b111101 v
1#
#40500
0#
#41000
b111100 w
b111100 v
1#
#41500
0#
#42000
b111011 w
b111011 v
1#
#42500
0#
#43000
b111010 w
b111010 v
1#
#43500
0#
#44000
b111001 w
b111001 v
1#
#44500
0#
#45000
b111000 w
b111000 v
1#
#45500
0#
#46000
b110111 w
b110111 v
1#
#46500
0#
#47000
b110110 w
b110110 v
1#
#47500
0#
#48000
b110101 w
b110101 v
1#
#48500
0#
#49000
b110100 w
b110100 v
1#
#49500
0#
#50000
b110011 w
b110011 v
1#
#50500
0#
#51000
b110010 w
b110010 v
1#
#51500
0#
#52000
b110001 w
b110001 v
1#
#52500
0#
#53000
b110000 w
b110000 v
1#
#53500
0#
#54000
b101111 w
b101111 v
1#
#54500
0#
#55000
b101110 w
b101110 v
1#
#55500
0#
#56000
b101101 w
b101101 v
1#
#56500
0#
#57000
b101100 w
b101100 v
1#
#57500
0#
#58000
b101011 w
b101011 v
1#
#58500
0#
#59000
b101010 w
b101010 v
1#
#59500
0#
#60000
b101001 w
b101001 v
1#
#60500
0#
#61000
b101000 w
b101000 v
1#
#61500
0#
#62000
b100111 w
b100111 v
1#
#62500
0#
#63000
b100110 w
b100110 v
1#
#63500
0#
#64000
b100101 w
b100101 v
1#
#64500
0#
#65000
b100100 w
b100100 v
1#
#65500
0#
#66000
b100011 w
b100011 v
1#
#66500
0#
#67000
b100010 w
b100010 v
1#
#67500
0#
#68000
b100001 w
b100001 v
1#
#68500
0#
#69000
b100000 w
b100000 v
1#
#69500
0#
#70000
b11111 w
b11111 v
1#
#70500
0#
#71000
b11110 w
b11110 v
1#
#71500
0#
#72000
b11101 w
b11101 v
1#
#72500
0#
#73000
b11100 w
b11100 v
1#
#73500
0#
#74000
b11011 w
b11011 v
1#
#74500
0#
#75000
b11010 w
b11010 v
1#
#75500
0#
#76000
b11001 w
b11001 v
1#
#76500
0#
#77000
b11000 w
b11000 v
1#
#77500
0#
#78000
b10111 w
b10111 v
1#
#78500
0#
#79000
b10110 w
b10110 v
1#
#79500
0#
#80000
b10101 w
b10101 v
1#
#80500
0#
#81000
b10100 w
b10100 v
1#
#81500
0#
#82000
b10011 w
b10011 v
1#
#82500
0#
#83000
b10010 w
b10010 v
1#
#83500
0#
#84000
b10001 w
b10001 v
1#
#84500
0#
#85000
b10000 w
b10000 v
1#
#85500
0#
#86000
b1111 w
b1111 v
1#
#86500
0#
#87000
b1110 w
b1110 v
1#
#87500
0#
#88000
b1101 w
b1101 v
1#
#88500
0#
#89000
b1100 w
b1100 v
1#
#89500
0#
#90000
b1011 w
b1011 v
1#
#90500
0#
#91000
b1010 w
b1010 v
1#
#91500
0#
#92000
b1001 w
b1001 v
1#
#92500
0#
#93000
b1000 w
b1000 v
1#
#93500
0#
#94000
b111 w
b111 v
1#
#94500
0#
#95000
b110 w
b110 v
1#
#95500
0#
#96000
b101 w
b101 v
1#
#96500
0#
#97000
b100 w
b100 v
1#
#97500
0#
#98000
b11 w
b11 v
1#
#98500
0#
#99000
b10 w
b10 v
1#
#99500
0#
#100000
b0 V
b0 W
b0 o
b0 #"
b0 1
b0 2
b0 n
b0 }
b1 w
1Y
1X
b1 v
14
13
1#
#100500
0#
#101000
b1 *
b0 +
b1 O
b0 P
b0 7
b0 8
b0 9
b0 :
b0 -
b0 ,
b0 .
b0 [
b0 \
b0 ]
b0 ^
b0 R
b0 Q
b0 S
bx V
bx W
bx o
bx #"
bx 1
bx 2
bx n
bx }
b0 B
b11 E
b11 %
b11 !"
b0 e
b11 h
b11 J
b11 %"
b0 w
0Y
0X
b0 v
04
03
1#
#101500
0#
#102000
bx y
bx x
b111 h
b111 J
b111 %"
b0 g
b111 E
b111 %
b111 !"
b0 D
1#
#102500
0#
#103000
b100 +
b100 P
b1 /
b1 0
b1 l
b1 |
1p
b1111 T
b1111 U
b1111 m
b1111 ""
1q
b0 E
b0 %
b0 !"
b1 C
b0 h
b0 J
b0 %"
b1111 f
1#
#103500
0#
#104000
bx T
bx U
bx m
bx ""
0q
bx /
bx 0
bx l
bx |
0p
b1100100 w
b1111 y
b1100100 v
b1 x
b10000 z
b10 h
b10 J
b10 %"
b10 E
b10 %
b10 !"
1#
#104500
0#
#105000
b1100011 w
b1100011 v
1#
#105500
0#
#106000
b1100010 w
b1100010 v
1#
#106500
0#
#107000
b1100001 w
b1100001 v
1#
#107500
0#
#108000
b1100000 w
b1100000 v
1#
#108500
0#
#109000
b1011111 w
b1011111 v
1#
#109500
0#
#110000
b1011110 w
b1011110 v
1#
#110500
0#
#111000
b1011101 w
b1011101 v
1#
#111500
0#
#112000
b1011100 w
b1011100 v
1#
#112500
0#
#113000
b1011011 w
b1011011 v
1#
#113500
0#
#114000
b1011010 w
b1011010 v
1#
#114500
0#
#115000
b1011001 w
b1011001 v
1#
#115500
0#
#116000
b1011000 w
b1011000 v
1#
#116500
0#
#117000
b1010111 w
b1010111 v
1#
#117500
0#
#118000
b1010110 w
b1010110 v
1#
#118500
0#
#119000
b1010101 w
b1010101 v
1#
#119500
0#
#120000
b1010100 w
b1010100 v
1#
#120500
0#
#121000
b1010011 w
b1010011 v
1#
#121500
0#
#122000
b1010010 w
b1010010 v
1#
#122500
0#
#123000
b1010001 w
b1010001 v
1#
#123500
0#
#124000
b1010000 w
b1010000 v
1#
#124500
0#
#125000
b1001111 w
b1001111 v
1#
#125500
0#
#126000
b1001110 w
b1001110 v
1#
#126500
0#
#127000
b1001101 w
b1001101 v
1#
#127500
0#
#128000
b1001100 w
b1001100 v
1#
#128500
0#
#129000
b1001011 w
b1001011 v
1#
#129500
0#
#130000
b1001010 w
b1001010 v
1#
#130500
0#
#131000
b1001001 w
b1001001 v
1#
#131500
0#
#132000
b1001000 w
b1001000 v
1#
#132500
0#
#133000
b1000111 w
b1000111 v
1#
#133500
0#
#134000
b1000110 w
b1000110 v
1#
#134500
0#
#135000
b1000101 w
b1000101 v
1#
#135500
0#
#136000
b1000100 w
b1000100 v
1#
#136500
0#
#137000
b1000011 w
b1000011 v
1#
#137500
0#
#138000
b1000010 w
b1000010 v
1#
#138500
0#
#139000
b1000001 w
b1000001 v
1#
#139500
0#
#140000
b1000000 w
b1000000 v
1#
#140500
0#
#141000
b111111 w
b111111 v
1#
#141500
0#
#142000
b111110 w
b111110 v
1#
#142500
0#
#143000
b111101 w
b111101 v
1#
#143500
0#
#144000
b111100 w
b111100 v
1#
#144500
0#
#145000
b111011 w
b111011 v
1#
#145500
0#
#146000
b111010 w
b111010 v
1#
#146500
0#
#147000
b111001 w
b111001 v
1#
#147500
0#
#148000
b111000 w
b111000 v
1#
#148500
0#
#149000
b110111 w
b110111 v
1#
#149500
0#
#150000
b110110 w
b110110 v
1#
#150500
0#
#151000
b110101 w
b110101 v
1#
#151500
0#
#152000
b110100 w
b110100 v
1#
#152500
0#
#153000
b110011 w
b110011 v
1#
#153500
0#
#154000
b110010 w
b110010 v
1#
#154500
0#
#155000
b110001 w
b110001 v
1#
#155500
0#
#156000
b110000 w
b110000 v
1#
#156500
0#
#157000
b101111 w
b101111 v
1#
#157500
0#
#158000
b101110 w
b101110 v
1#
#158500
0#
#159000
b101101 w
b101101 v
1#
#159500
0#
#160000
b101100 w
b101100 v
1#
#160500
0#
#161000
b101011 w
b101011 v
1#
#161500
0#
#162000
b101010 w
b101010 v
1#
#162500
0#
#163000
b101001 w
b101001 v
1#
#163500
0#
#164000
b101000 w
b101000 v
1#
#164500
0#
#165000
b100111 w
b100111 v
1#
#165500
0#
#166000
b100110 w
b100110 v
1#
#166500
0#
#167000
b100101 w
b100101 v
1#
#167500
0#
#168000
b100100 w
b100100 v
1#
#168500
0#
#169000
b100011 w
b100011 v
1#
#169500
0#
#170000
b100010 w
b100010 v
1#
#170500
0#
#171000
b100001 w
b100001 v
1#
#171500
0#
#172000
b100000 w
b100000 v
1#
#172500
0#
#173000
b11111 w
b11111 v
1#
#173500
0#
#174000
b11110 w
b11110 v
1#
#174500
0#
#175000
b11101 w
b11101 v
1#
#175500
0#
#176000
b11100 w
b11100 v
1#
#176500
0#
#177000
b11011 w
b11011 v
1#
#177500
0#
#178000
b11010 w
b11010 v
1#
#178500
0#
#179000
b11001 w
b11001 v
1#
#179500
0#
#180000
b11000 w
b11000 v
1#
#180500
0#
#181000
b10111 w
b10111 v
1#
#181500
0#
#182000
b10110 w
b10110 v
1#
#182500
0#
#183000
b10101 w
b10101 v
1#
#183500
0#
#184000
b10100 w
b10100 v
1#
#184500
0#
#185000
b10011 w
b10011 v
1#
#185500
0#
#186000
b10010 w
b10010 v
1#
#186500
0#
#187000
b10001 w
b10001 v
1#
#187500
0#
#188000
b10000 w
b10000 v
1#
#188500
0#
#189000
b1111 w
b1111 v
1#
#189500
0#
#190000
b1110 w
b1110 v
1#
#190500
0#
#191000
b1101 w
b1101 v
1#
#191500
0#
#192000
b1100 w
b1100 v
1#
#192500
0#
#193000
b1011 w
b1011 v
1#
#193500
0#
#194000
b1010 w
b1010 v
1#
#194500
0#
#195000
b1001 w
b1001 v
1#
#195500
0#
#196000
b1000 w
b1000 v
1#
#196500
0#
#197000
b111 w
b111 v
1#
#197500
0#
#198000
b110 w
b110 v
1#
#198500
0#
#199000
b101 w
b101 v
1#
#199500
0#
#200000
b100 w
b100 v
1#
#200500
0#
#201000
b11 w
b11 v
1#
#201500
0#
#202000
b10 w
b10 v
1#
#202500
0#
#203000
b0 V
b0 W
b0 o
b0 #"
b10000 1
b10000 2
b10000 n
b10000 }
b1 w
1Y
1X
b1 v
14
13
1#
#203500
0#
#204000
b10 O
b1 P
b10 *
b1 +
bx V
bx W
bx o
bx #"
bx 1
bx 2
bx n
bx }
b1 9
b10000 -
b1 ,
b10000 .
b0 w
0Y
0X
b0 v
04
03
b11 h
b11 J
b11 %"
b10000 B
b11 E
b11 %
b11 !"
1#
#204500
0#
#205000
b111 E
b111 %
b111 !"
b1 D
b111 h
b111 J
b111 %"
bx y
bx x
1#
#205500
0#
#206000
b100 P
b100 +
b10000 T
b10000 U
b10000 m
b10000 ""
1q
b10 /
b10 0
b10 l
b10 |
1p
b0 h
b0 J
b0 %"
b10000 f
b0 E
b0 %
b0 !"
b10 C
1#
#206500
0#
#207000
bx /
bx 0
bx l
bx |
0p
bx T
bx U
bx m
bx ""
0q
b10 E
b10 %
b10 !"
b10 h
b10 J
b10 %"
b1100100 w
b10000 y
b1100100 v
b10 x
b111000000010000 z
1#
#207500
0#
#208000
b1100011 w
b1100011 v
1#
#208500
0#
#209000
b1100010 w
b1100010 v
1#
#209500
0#
#210000
b1100001 w
b1100001 v
1#
#210500
0#
#211000
b1100000 w
b1100000 v
1#
#211500
0#
#212000
b1011111 w
b1011111 v
1#
#212500
0#
#213000
b1011110 w
b1011110 v
1#
#213500
0#
#214000
b1011101 w
b1011101 v
1#
#214500
0#
#215000
b1011100 w
b1011100 v
1#
#215500
0#
#216000
b1011011 w
b1011011 v
1#
#216500
0#
#217000
b1011010 w
b1011010 v
1#
#217500
0#
#218000
b1011001 w
b1011001 v
1#
#218500
0#
#219000
b1011000 w
b1011000 v
1#
#219500
0#
#220000
b1010111 w
b1010111 v
1#
#220500
0#
#221000
b1010110 w
b1010110 v
1#
#221500
0#
#222000
b1010101 w
b1010101 v
1#
#222500
0#
#223000
b1010100 w
b1010100 v
1#
#223500
0#
#224000
b1010011 w
b1010011 v
1#
#224500
0#
#225000
b1010010 w
b1010010 v
1#
#225500
0#
#226000
b1010001 w
b1010001 v
1#
#226500
0#
#227000
b1010000 w
b1010000 v
1#
#227500
0#
#228000
b1001111 w
b1001111 v
1#
#228500
0#
#229000
b1001110 w
b1001110 v
1#
#229500
0#
#230000
b1001101 w
b1001101 v
1#
#230500
0#
#231000
b1001100 w
b1001100 v
1#
#231500
0#
#232000
b1001011 w
b1001011 v
1#
#232500
0#
#233000
b1001010 w
b1001010 v
1#
#233500
0#
#234000
b1001001 w
b1001001 v
1#
#234500
0#
#235000
b1001000 w
b1001000 v
1#
#235500
0#
#236000
b1000111 w
b1000111 v
1#
#236500
0#
#237000
b1000110 w
b1000110 v
1#
#237500
0#
#238000
b1000101 w
b1000101 v
1#
#238500
0#
#239000
b1000100 w
b1000100 v
1#
#239500
0#
#240000
b1000011 w
b1000011 v
1#
#240500
0#
#241000
b1000010 w
b1000010 v
1#
#241500
0#
#242000
b1000001 w
b1000001 v
1#
#242500
0#
#243000
b1000000 w
b1000000 v
1#
#243500
0#
#244000
b111111 w
b111111 v
1#
#244500
0#
#245000
b111110 w
b111110 v
1#
#245500
0#
#246000
b111101 w
b111101 v
1#
#246500
0#
#247000
b111100 w
b111100 v
1#
#247500
0#
#248000
b111011 w
b111011 v
1#
#248500
0#
#249000
b111010 w
b111010 v
1#
#249500
0#
#250000
b111001 w
b111001 v
1#
#250500
0#
#251000
b111000 w
b111000 v
1#
#251500
0#
#252000
b110111 w
b110111 v
1#
#252500
0#
#253000
b110110 w
b110110 v
1#
#253500
0#
#254000
b110101 w
b110101 v
1#
#254500
0#
#255000
b110100 w
b110100 v
1#
#255500
0#
#256000
b110011 w
b110011 v
1#
#256500
0#
#257000
b110010 w
b110010 v
1#
#257500
0#
#258000
b110001 w
b110001 v
1#
#258500
0#
#259000
b110000 w
b110000 v
1#
#259500
0#
#260000
b101111 w
b101111 v
1#
#260500
0#
#261000
b101110 w
b101110 v
1#
#261500
0#
#262000
b101101 w
b101101 v
1#
#262500
0#
#263000
b101100 w
b101100 v
1#
#263500
0#
#264000
b101011 w
b101011 v
1#
#264500
0#
#265000
b101010 w
b101010 v
1#
#265500
0#
#266000
b101001 w
b101001 v
1#
#266500
0#
#267000
b101000 w
b101000 v
1#
#267500
0#
#268000
b100111 w
b100111 v
1#
#268500
0#
#269000
b100110 w
b100110 v
1#
#269500
0#
#270000
b100101 w
b100101 v
1#
#270500
0#
#271000
b100100 w
b100100 v
1#
#271500
0#
#272000
b100011 w
b100011 v
1#
#272500
0#
#273000
b100010 w
b100010 v
1#
#273500
0#
#274000
b100001 w
b100001 v
1#
#274500
0#
#275000
b100000 w
b100000 v
1#
#275500
0#
#276000
b11111 w
b11111 v
1#
#276500
0#
#277000
b11110 w
b11110 v
1#
#277500
0#
#278000
b11101 w
b11101 v
1#
#278500
0#
#279000
b11100 w
b11100 v
1#
#279500
0#
#280000
b11011 w
b11011 v
1#
#280500
0#
#281000
b11010 w
b11010 v
1#
#281500
0#
#282000
b11001 w
b11001 v
1#
#282500
0#
#283000
b11000 w
b11000 v
1#
#283500
0#
#284000
b10111 w
b10111 v
1#
#284500
0#
#285000
b10110 w
b10110 v
1#
#285500
0#
#286000
b10101 w
b10101 v
1#
#286500
0#
#287000
b10100 w
b10100 v
1#
#287500
0#
#288000
b10011 w
b10011 v
1#
#288500
0#
#289000
b10010 w
b10010 v
1#
#289500
0#
#290000
b10001 w
b10001 v
1#
#290500
0#
#291000
b10000 w
b10000 v
1#
#291500
0#
#292000
b1111 w
b1111 v
1#
#292500
0#
#293000
b1110 w
b1110 v
1#
#293500
0#
#294000
b1101 w
b1101 v
1#
#294500
0#
#295000
b1100 w
b1100 v
1#
#295500
0#
#296000
b1011 w
b1011 v
1#
#296500
0#
#297000
b1010 w
b1010 v
1#
#297500
0#
#298000
b1001 w
b1001 v
1#
#298500
0#
#299000
b1000 w
b1000 v
1#
#299500
0#
#300000
b111 w
b111 v
1#
#300500
0#
#301000
b110 w
b110 v
1#
#301500
0#
#302000
b101 w
b101 v
1#
#302500
0#
#303000
b100 w
b100 v
1#
#303500
0#
#304000
b11 w
b11 v
1#
#304500
0#
#305000
b10 w
b10 v
1#
#305500
0#
#306000
b0 V
b0 W
b0 o
b0 #"
b111000000010000 1
b111000000010000 2
b111000000010000 n
b111000000010000 }
b1 w
1Y
1X
b1 v
14
13
1#
#306500
0#
#307000
b11 *
b10 +
b11 O
b10 P
b111 7
bx V
bx W
bx o
bx #"
bx 1
bx 2
bx n
bx }
b111000000010000 B
b11 E
b11 %
b11 !"
b11 h
b11 J
b11 %"
b0 w
0Y
0X
b0 v
04
03
1#
#307500
0#
#308000
bx y
bx x
b111 h
b111 J
b111 %"
b1000 E
b1000 %
b1000 !"
b10000 G
b10000 >
b10000 Z
b10000 r
b10000 &"
1#
#308500
0#
#309000
b100 P
b10001 T
b10001 U
b10001 m
b10001 ""
1q
b1001 E
b1001 %
b1001 !"
b0 h
b0 J
b0 %"
b10001 f
1#
#309500
0#
#310000
bx T
bx U
bx m
bx ""
0q
b1100100 w
b10001 y
b10 h
b10 J
b10 %"
b1010 E
b1010 %
b1010 !"
b1 <
1#
#310500
0#
#311000
b100 +
b11 /
b11 0
b11 l
b11 |
1p
b0 E
b0 %
b0 !"
b11 C
1F
1@
b1 H
b1 ?
b1 t
b1 ("
b1100011 w
1#
#311500
0#
#312000
b10 O
bx /
bx 0
bx l
bx |
0p
b1100010 w
b1100100 v
b11 x
b1000000100000001 z
b10 E
b10 %
b10 !"
0F
0@
1#
#312500
0#
#313000
b1100001 w
b1100011 v
1#
#313500
0#
#314000
b1100000 w
b1100010 v
1#
#314500
0#
#315000
b1011111 w
b1100001 v
1#
#315500
0#
#316000
b1011110 w
b1100000 v
1#
#316500
0#
#317000
b1011101 w
b1011111 v
1#
#317500
0#
#318000
b1011100 w
b1011110 v
1#
#318500
0#
#319000
b1011011 w
b1011101 v
1#
#319500
0#
#320000
b1011010 w
b1011100 v
1#
#320500
0#
#321000
b1011001 w
b1011011 v
1#
#321500
0#
#322000
b1011000 w
b1011010 v
1#
#322500
0#
#323000
b1010111 w
b1011001 v
1#
#323500
0#
#324000
b1010110 w
b1011000 v
1#
#324500
0#
#325000
b1010101 w
b1010111 v
1#
#325500
0#
#326000
b1010100 w
b1010110 v
1#
#326500
0#
#327000
b1010011 w
b1010101 v
1#
#327500
0#
#328000
b1010010 w
b1010100 v
1#
#328500
0#
#329000
b1010001 w
b1010011 v
1#
#329500
0#
#330000
b1010000 w
b1010010 v
1#
#330500
0#
#331000
b1001111 w
b1010001 v
1#
#331500
0#
#332000
b1001110 w
b1010000 v
1#
#332500
0#
#333000
b1001101 w
b1001111 v
1#
#333500
0#
#334000
b1001100 w
b1001110 v
1#
#334500
0#
#335000
b1001011 w
b1001101 v
1#
#335500
0#
#336000
b1001010 w
b1001100 v
1#
#336500
0#
#337000
b1001001 w
b1001011 v
1#
#337500
0#
#338000
b1001000 w
b1001010 v
1#
#338500
0#
#339000
b1000111 w
b1001001 v
1#
#339500
0#
#340000
b1000110 w
b1001000 v
1#
#340500
0#
#341000
b1000101 w
b1000111 v
1#
#341500
0#
#342000
b1000100 w
b1000110 v
1#
#342500
0#
#343000
b1000011 w
b1000101 v
1#
#343500
0#
#344000
b1000010 w
b1000100 v
1#
#344500
0#
#345000
b1000001 w
b1000011 v
1#
#345500
0#
#346000
b1000000 w
b1000010 v
1#
#346500
0#
#347000
b111111 w
b1000001 v
1#
#347500
0#
#348000
b111110 w
b1000000 v
1#
#348500
0#
#349000
b111101 w
b111111 v
1#
#349500
0#
#350000
b111100 w
b111110 v
1#
#350500
0#
#351000
b111011 w
b111101 v
1#
#351500
0#
#352000
b111010 w
b111100 v
1#
#352500
0#
#353000
b111001 w
b111011 v
1#
#353500
0#
#354000
b111000 w
b111010 v
1#
#354500
0#
#355000
b110111 w
b111001 v
1#
#355500
0#
#356000
b110110 w
b111000 v
1#
#356500
0#
#357000
b110101 w
b110111 v
1#
#357500
0#
#358000
b110100 w
b110110 v
1#
#358500
0#
#359000
b110011 w
b110101 v
1#
#359500
0#
#360000
b110010 w
b110100 v
1#
#360500
0#
#361000
b110001 w
b110011 v
1#
#361500
0#
#362000
b110000 w
b110010 v
1#
#362500
0#
#363000
b101111 w
b110001 v
1#
#363500
0#
#364000
b101110 w
b110000 v
1#
#364500
0#
#365000
b101101 w
b101111 v
1#
#365500
0#
#366000
b101100 w
b101110 v
1#
#366500
0#
#367000
b101011 w
b101101 v
1#
#367500
0#
#368000
b101010 w
b101100 v
1#
#368500
0#
#369000
b101001 w
b101011 v
1#
#369500
0#
#370000
b101000 w
b101010 v
1#
#370500
0#
#371000
b100111 w
b101001 v
1#
#371500
0#
#372000
b100110 w
b101000 v
1#
#372500
0#
#373000
b100101 w
b100111 v
1#
#373500
0#
#374000
b100100 w
b100110 v
1#
#374500
0#
#375000
b100011 w
b100101 v
1#
#375500
0#
#376000
b100010 w
b100100 v
1#
#376500
0#
#377000
b100001 w
b100011 v
1#
#377500
0#
#378000
b100000 w
b100010 v
1#
#378500
0#
#379000
b11111 w
b100001 v
1#
#379500
0#
#380000
b11110 w
b100000 v
1#
#380500
0#
#381000
b11101 w
b11111 v
1#
#381500
0#
#382000
b11100 w
b11110 v
1#
#382500
0#
#383000
b11011 w
b11101 v
1#
#383500
0#
#384000
b11010 w
b11100 v
1#
#384500
0#
#385000
b11001 w
b11011 v
1#
#385500
0#
#386000
b11000 w
b11010 v
1#
#386500
0#
#387000
b10111 w
b11001 v
1#
#387500
0#
#388000
b10110 w
b11000 v
1#
#388500
0#
#389000
b10101 w
b10111 v
1#
#389500
0#
#390000
b10100 w
b10110 v
1#
#390500
0#
#391000
b10011 w
b10101 v
1#
#391500
0#
#392000
b10010 w
b10100 v
1#
#392500
0#
#393000
b10001 w
b10011 v
1#
#393500
0#
#394000
b10000 w
b10010 v
1#
#394500
0#
#395000
b1111 w
b10001 v
1#
#395500
0#
#396000
b1110 w
b10000 v
1#
#396500
0#
#397000
b1101 w
b1111 v
1#
#397500
0#
